-1.274295576287252,0.8018972573071126,-5.996448848990623,0.6186087495750496,5.0938837469974185,-0.6514444176568427,4.633001173515451,-4.66244106768975
5.145123904583395,-4.629333414292039,-0.4966429722816437,0.5309595592275024,-1.1337341670082934,-5.860484489552766,4.914611017597734,0.6908834018964463
3.809405551347773,-2.5234110604184803,2.3467570199753056,-6.592910803870911,3.9518176775392795,1.9681428138026476,-0.8437419912629824,-2.7290587881530026
============
-4.921197399517276,10.769902225676029,5.038952588941607
4.453332335792608,-11.72171064491241,-6.711700475455012
-16.969650191627398,-2.7912198346688064,6.303200231780992
5.0593058220715434,4.566431366077286,-16.38592695809644
10.332464480974918,-4.509730558957978,5.771430358521145
-2.893428248990066,-17.02349129249348,6.290695051713797
7.921426814189691,8.120138562753128,0.07893629610254047
-10.839981679811173,3.904033826481373,-6.994532605083763
============
