0.0,0.0,0.0,6.194250400988818E-7,0.0,0.0,0.0,0.0
0.0,0.0,0.0,6.194259544292335E-7,0.0,0.0,0.0,0.0
0.0,0.0,0.0,6.194249989152101E-7,0.0,0.0,0.0,0.0
============
-0.017848305960647962,-0.01784830596034235,-0.017848305960661733
-0.00940020751470748,-0.009400207514546522,-0.009400207514714732
-0.01381897221980722,-0.0138189722195706,-0.013818972219817878
0.212417459325735,0.21241745932209777,0.21241745932589884
-0.03853975475141314,-0.03853975475075323,-0.03853975475144287
-0.024744676876739084,-0.02474467687631538,-0.024744676876758173
-0.07387562245424095,-0.07387562245297599,-0.07387562245429795
-0.01121158049084926,-0.011211580490657286,-0.011211580490857907
============
