1.1984905778887476,1.6564765522620648,0.667750351667628,0.6534090866087732,1.1314512329993727,-3.7469401968907174,1.3468559187648346,-0.03757718130483254
0.9526015193519781,1.4641977988697625,0.8671295725075292,-0.5303970134868764,-3.031135740728413,1.5037748689438972,1.0362064993205446,-3.0132469492837624
1.4005339254574007,1.8741606440152263,-5.248594087697415,-5.730705162005365,1.6410629118292785,1.8817759188083436,1.50141272938012,1.9839343185568612
============
0.5570633563565862,3.4155451002613373,0.39528195715324504
0.36627145987704973,2.1986023514368798,0.2550119143626124
0.08132439345662679,0.5889824469010801,-0.3551987561556169
-0.08586105938813345,-0.5932097603804029,-0.359537162222301
0.06332898843925908,-3.147775148646847,0.006558447111085039
-1.560736295745875,0.00943921617572691,2.872652417682934E-4
0.14477726387505852,0.8477301837486148,0.09860135790516449
-0.02312463824245302,-2.3053523149833004,0.05509066774121464
============
