1.000369692437827,1.598718194971393,0.5654923994813176,-4.989235003589546,1.6351621635482434,0.8168496701388444,1.3151667899317228,0.8391802513174325
1.6848469297002202,1.2595625194660025,1.1191341664881926,-0.0048616284241843125,1.0440789747304127,0.8641260699668727,1.133037217097216,-4.529856860855738
-3.6723515550428534,1.6857586959806323,1.7136389457653904,-4.663921785980171,1.7007254800937233,1.028082767142789,2.149935536375318,0.9616058124606629
============
2.1482906776143116,0.001076866425149658,-1.9831721761161172
-1.86951744223008E-6,1.3636272486328372E-5,1.1289055207782324E-5
-0.13151171000569875,0.8884782194352183,0.8545930020425926
-1.9826759808858934,-1.276677945849896E-4,-1.8970657677011235E-4
5.3554589580835626E-5,-6.319708861758778E-6,-7.695503717163735E-5
7.862182303514434E-5,-3.0315534777768283E-5,-2.3999034049655235E-4
1.0628149797105952E-4,9.11036727846715E-7,-4.2913288445605516E-5
0.00115184336092795,-2.1865778853341853,-6.85197730174798E-5
============
