-0.6887985379832646,-0.26270325016556156,0.8007687046136279,0.568870122867537,2.33106657860979,0.05997856507974018,0.37400128850618664,-0.5997563878552596
-0.10946715501380844,-0.6238194552817597,-0.25920435311826334,0.20160337510009183,4.101542740138531,0.8126752211299407,0.16996275449598908,-0.17667594000253733
0.27885221488544215,0.3440198448237697,0.5270363365552515,-0.8781763189651783,3.280215081490525,-0.7105544720027756,0.179257040995979,0.841899463642381
============
2.945593110560155,1.866143325664285,1.1296703346514732
1.5788480812401975,2.7694097326372535,3.04356585641279
1.920327147348241,2.0839964413313457,2.617588404129885
1.7151134601640445,1.9025754737722314,2.0349693366938024
1.702575006903167,1.9740478459753088,1.6767134789936782
2.657226458673062,2.4483623341965695,2.819641624888707
2.5908180805069363,1.5183664486871518,1.2831364357945638
1.9529880969846198,2.2986466555786595,1.697574873464496
============
